EESchema Schematic File Version 4
LIBS:lmd_esp32-cache
EELAYER 29 0
EELAYER END
$Descr A4 11693 8268
encoding utf-8
Sheet 1 1
Title ""
Date ""
Rev ""
Comp ""
Comment1 ""
Comment2 ""
Comment3 ""
Comment4 ""
$EndDescr
$Comp
L RF_Module:ESP32-WROOM-32 U4
U 1 1 5C7A904D
P 8300 3000
F 0 "U4" H 8750 4350 50  0000 C CNN
F 1 "ESP32-WROOM-32" H 7850 4350 50  0000 C CNN
F 2 "RF_Module.pretty:ESP32-WROOM-32" H 8300 1500 50  0001 C CNN
F 3 "https://www.espressif.com/sites/default/files/documentation/esp32-wroom-32_datasheet_en.pdf" H 8000 3050 50  0001 C CNN
	1    8300 3000
	1    0    0    -1  
$EndComp
$Comp
L Connector:USB_B_Micro J1
U 1 1 5C7A95FD
P 3450 1800
F 0 "J1" H 3505 2267 50  0000 C CNN
F 1 "USB_B_Micro" H 3505 2176 50  0000 C CNN
F 2 "itay_kicad:USB_Micro-B_Aliexpress" H 3600 1750 50  0001 C CNN
F 3 "~" H 3600 1750 50  0001 C CNN
	1    3450 1800
	1    0    0    -1  
$EndComp
$Comp
L power:VBUS #PWR0101
U 1 1 5C7A9737
P 3850 1550
F 0 "#PWR0101" H 3850 1400 50  0001 C CNN
F 1 "VBUS" H 3865 1723 50  0000 C CNN
F 2 "" H 3850 1550 50  0001 C CNN
F 3 "" H 3850 1550 50  0001 C CNN
	1    3850 1550
	1    0    0    -1  
$EndComp
Wire Wire Line
	3850 1550 3850 1600
Wire Wire Line
	3850 1600 3750 1600
$Comp
L itays_kicad_lib:GND #PWR0102
U 1 1 5C7A9779
P 3450 2250
F 0 "#PWR0102" H 3450 2000 50  0001 C CNN
F 1 "GND" H 3455 2077 50  0000 C CNN
F 2 "" H 3450 2250 50  0000 C CNN
F 3 "" H 3450 2250 50  0000 C CNN
	1    3450 2250
	1    0    0    -1  
$EndComp
Wire Wire Line
	3750 1900 4000 1900
$Comp
L itays_kicad_lib:+3V3 #PWR0103
U 1 1 5C7A9864
P 4400 1250
F 0 "#PWR0103" H 4400 1100 50  0001 C CNN
F 1 "+3V3" H 4415 1423 50  0000 C CNN
F 2 "" H 4400 1250 50  0000 C CNN
F 3 "" H 4400 1250 50  0000 C CNN
	1    4400 1250
	1    0    0    -1  
$EndComp
Text GLabel 4800 2300 2    50   Input ~ 0
RTS
Text GLabel 4800 2200 2    50   Input ~ 0
DTR
Text GLabel 4800 1500 2    50   Input ~ 0
RXD_0
Text GLabel 4800 1600 2    50   Input ~ 0
TXD_0
Text GLabel 8900 1900 2    50   Input ~ 0
TXD_0
Text GLabel 8900 2100 2    50   Input ~ 0
RXD_0
$Comp
L itays_kicad_lib:GND #PWR0105
U 1 1 5C7A9A19
P 4400 2500
F 0 "#PWR0105" H 4400 2250 50  0001 C CNN
F 1 "GND" H 4405 2327 50  0000 C CNN
F 2 "" H 4400 2500 50  0000 C CNN
F 3 "" H 4400 2500 50  0000 C CNN
	1    4400 2500
	1    0    0    -1  
$EndComp
Wire Wire Line
	4000 1800 3750 1800
$Comp
L itays_kicad_lib:UMJHN U1
U 1 1 5C7A974A
P 5950 1550
F 0 "U1" H 5800 1750 50  0000 C CNN
F 1 "UMH3N" H 5900 1350 50  0000 C CNN
F 2 "TO_SOT_Packages_SMD:SOT-363_SC-70-6" H 6300 1650 50  0001 C CNN
F 3 "" H 6300 1650 50  0001 C CNN
	1    5950 1550
	1    0    0    -1  
$EndComp
Text GLabel 5550 1650 0    50   Input ~ 0
RESET
Text GLabel 5550 1550 0    50   Input ~ 0
RTS
Text GLabel 5550 1450 0    50   Input ~ 0
DTR
Text GLabel 6300 1450 2    50   Input ~ 0
RTS
Text GLabel 6300 1550 2    50   Input ~ 0
DTR
Text GLabel 6300 1650 2    50   Input ~ 0
IO0
Text GLabel 8900 1800 2    50   Input ~ 0
IO0
Text GLabel 7000 1800 0    50   Input ~ 0
RESET
Wire Wire Line
	7700 1800 7300 1800
$Comp
L itays_kicad_lib:GND #PWR0106
U 1 1 5C7A9D29
P 8300 4400
F 0 "#PWR0106" H 8300 4150 50  0001 C CNN
F 1 "GND" H 8305 4227 50  0000 C CNN
F 2 "" H 8300 4400 50  0000 C CNN
F 3 "" H 8300 4400 50  0000 C CNN
	1    8300 4400
	1    0    0    -1  
$EndComp
$Comp
L itays_kicad_lib:GND #PWR0107
U 1 1 5C7A9D52
P 7300 2200
F 0 "#PWR0107" H 7300 1950 50  0001 C CNN
F 1 "GND" H 7305 2027 50  0000 C CNN
F 2 "" H 7300 2200 50  0000 C CNN
F 3 "" H 7300 2200 50  0000 C CNN
	1    7300 2200
	1    0    0    -1  
$EndComp
Connection ~ 7300 1800
Wire Wire Line
	7300 1800 7050 1800
$Comp
L Device:C_Small C6
U 1 1 5C7AA142
P 7050 2000
F 0 "C6" H 6959 1954 50  0000 R CNN
F 1 "1uF" H 6959 2045 50  0000 R CNN
F 2 "Capacitors_SMD:C_0805" H 7050 2000 50  0001 C CNN
F 3 "~" H 7050 2000 50  0001 C CNN
	1    7050 2000
	1    0    0    1   
$EndComp
$Comp
L itays_kicad_lib:GND #PWR0108
U 1 1 5C7AA20C
P 7050 2200
F 0 "#PWR0108" H 7050 1950 50  0001 C CNN
F 1 "GND" H 7055 2027 50  0000 C CNN
F 2 "" H 7050 2200 50  0000 C CNN
F 3 "" H 7050 2200 50  0000 C CNN
	1    7050 2200
	1    0    0    -1  
$EndComp
Connection ~ 7050 1800
Wire Wire Line
	7050 1800 7000 1800
$Comp
L Device:R_Small R3
U 1 1 5C7AA2A4
P 7050 1600
F 0 "R3" H 7109 1646 50  0000 L CNN
F 1 "10k" H 7109 1555 50  0000 L CNN
F 2 "Resistors_SMD:R_0805" H 7050 1600 50  0001 C CNN
F 3 "~" H 7050 1600 50  0001 C CNN
	1    7050 1600
	1    0    0    -1  
$EndComp
Wire Wire Line
	7050 1700 7050 1800
$Comp
L itays_kicad_lib:+3V3 #PWR0109
U 1 1 5C7AA33C
P 7050 1500
F 0 "#PWR0109" H 7050 1350 50  0001 C CNN
F 1 "+3V3" H 7065 1673 50  0000 C CNN
F 2 "" H 7050 1500 50  0000 C CNN
F 3 "" H 7050 1500 50  0000 C CNN
	1    7050 1500
	1    0    0    -1  
$EndComp
$Comp
L itays_kicad_lib:GND #PWR0110
U 1 1 5C7AEC91
P 3450 5450
F 0 "#PWR0110" H 3450 5200 50  0001 C CNN
F 1 "GND" H 3455 5277 50  0000 C CNN
F 2 "" H 3450 5450 50  0000 C CNN
F 3 "" H 3450 5450 50  0000 C CNN
	1    3450 5450
	1    0    0    -1  
$EndComp
$Comp
L Device:LED D1
U 1 1 5C7D271A
P 9750 5450
F 0 "D1" H 9742 5195 50  0000 C CNN
F 1 "ON LED" H 9742 5286 50  0000 C CNN
F 2 "LEDs:LED_0805" H 9750 5450 50  0001 C CNN
F 3 "~" H 9750 5450 50  0001 C CNN
	1    9750 5450
	0    -1   -1   0   
$EndComp
$Comp
L itays_kicad_lib:+3V3 #PWR0111
U 1 1 5C7D2AC8
P 9750 5100
F 0 "#PWR0111" H 9750 4950 50  0001 C CNN
F 1 "+3V3" H 9765 5273 50  0000 C CNN
F 2 "" H 9750 5100 50  0000 C CNN
F 3 "" H 9750 5100 50  0000 C CNN
	1    9750 5100
	1    0    0    -1  
$EndComp
$Comp
L itays_kicad_lib:GND #PWR0112
U 1 1 5C7D2BB3
P 9750 5600
F 0 "#PWR0112" H 9750 5350 50  0001 C CNN
F 1 "GND" H 9755 5427 50  0000 C CNN
F 2 "" H 9750 5600 50  0000 C CNN
F 3 "" H 9750 5600 50  0000 C CNN
	1    9750 5600
	1    0    0    -1  
$EndComp
$Comp
L Device:R_Small R1
U 1 1 5C7D378A
P 9750 5200
F 0 "R1" V 9554 5200 50  0000 C CNN
F 1 "75R" V 9645 5200 50  0000 C CNN
F 2 "Resistors_SMD:R_0805" H 9750 5200 50  0001 C CNN
F 3 "~" H 9750 5200 50  0001 C CNN
	1    9750 5200
	-1   0    0    1   
$EndComp
Wire Wire Line
	3450 2200 3450 2250
Wire Wire Line
	3350 2200 3450 2200
Connection ~ 3450 2200
$Comp
L power:VBUS #PWR0113
U 1 1 5C7D54BC
P 6350 4900
F 0 "#PWR0113" H 6350 4750 50  0001 C CNN
F 1 "VBUS" H 6365 5073 50  0000 C CNN
F 2 "" H 6350 4900 50  0001 C CNN
F 3 "" H 6350 4900 50  0001 C CNN
	1    6350 4900
	1    0    0    -1  
$EndComp
Wire Wire Line
	6350 5100 6450 5100
Wire Wire Line
	6750 5350 6900 5350
Text GLabel 6900 5350 2    50   Input ~ 0
V_REG
$Comp
L Device:C_Small C5
U 1 1 5C7D9641
P 6750 5500
F 0 "C5" H 6850 5500 50  0000 L CNN
F 1 "10pF" H 6850 5400 50  0000 L CNN
F 2 "Capacitors_SMD:C_0805" H 6750 5500 50  0001 C CNN
F 3 "~" H 6750 5500 50  0001 C CNN
	1    6750 5500
	1    0    0    -1  
$EndComp
$Comp
L itays_kicad_lib:GND #PWR0114
U 1 1 5C7D96CD
P 6750 5600
F 0 "#PWR0114" H 6750 5350 50  0001 C CNN
F 1 "GND" H 6755 5427 50  0000 C CNN
F 2 "" H 6750 5600 50  0000 C CNN
F 3 "" H 6750 5600 50  0000 C CNN
	1    6750 5600
	1    0    0    -1  
$EndComp
$Comp
L Device:R_Small R2
U 1 1 5C7D978C
P 6350 5500
F 0 "R2" H 6200 5550 50  0000 L CNN
F 1 "100k" H 6100 5450 50  0000 L CNN
F 2 "Resistors_SMD:R_0805" H 6350 5500 50  0001 C CNN
F 3 "~" H 6350 5500 50  0001 C CNN
	1    6350 5500
	1    0    0    -1  
$EndComp
$Comp
L itays_kicad_lib:GND #PWR0115
U 1 1 5C7D9816
P 6350 5600
F 0 "#PWR0115" H 6350 5350 50  0001 C CNN
F 1 "GND" H 6355 5427 50  0000 C CNN
F 2 "" H 6350 5600 50  0000 C CNN
F 3 "" H 6350 5600 50  0000 C CNN
	1    6350 5600
	1    0    0    -1  
$EndComp
Connection ~ 6350 5100
Text Notes 6150 4650 0    50   ~ 0
Input Voltage Select
Wire Wire Line
	6350 4900 6350 5100
Wire Wire Line
	6750 5300 6750 5350
Connection ~ 6750 5350
Wire Wire Line
	6750 5400 6750 5350
$Comp
L Device:Q_PMOS_GSD Q1
U 1 1 5CA53AE4
P 6650 5100
F 0 "Q1" H 6855 5146 50  0000 L CNN
F 1 "AO3401" H 6855 5055 50  0000 L CNN
F 2 "TO_SOT_Packages_SMD:SOT-23" H 6850 5200 50  0001 C CNN
F 3 "~" H 6650 5100 50  0001 C CNN
	1    6650 5100
	1    0    0    -1  
$EndComp
Wire Wire Line
	5850 5500 5850 5450
NoConn ~ 4000 2100
NoConn ~ 4000 2300
$Comp
L Device:C_Small C3
U 1 1 5CC4FCB5
P 4600 1300
F 0 "C3" V 4371 1300 50  0000 C CNN
F 1 "0.1uF" V 4462 1300 50  0000 C CNN
F 2 "Capacitors_SMD:C_0805" H 4600 1300 50  0001 C CNN
F 3 "~" H 4600 1300 50  0001 C CNN
	1    4600 1300
	0    1    1    0   
$EndComp
Wire Wire Line
	4300 1300 4400 1300
Wire Wire Line
	4400 1250 4400 1300
Connection ~ 4400 1300
Wire Wire Line
	4400 1300 4500 1300
$Comp
L itays_kicad_lib:GND #PWR0117
U 1 1 5CC6C71C
P 4700 1300
F 0 "#PWR0117" H 4700 1050 50  0001 C CNN
F 1 "GND" H 4705 1127 50  0000 C CNN
F 2 "" H 4700 1300 50  0000 C CNN
F 3 "" H 4700 1300 50  0000 C CNN
	1    4700 1300
	0    -1   -1   0   
$EndComp
Text Notes 4000 4950 2    50   ~ 0
2.5 Jack INPUT
$Comp
L Connector:Barrel_Jack_Switch J2
U 1 1 5CCED7CB
P 3750 5300
F 0 "J2" H 3650 5100 50  0000 R CNN
F 1 "Barrel_Jack_Switch" H 3520 5251 50  0001 R CNN
F 2 "Connectors_BarrelJack:BarrelJack_Wuerth_6941xx301002" H 3800 5260 50  0001 C CNN
F 3 "~" H 3800 5260 50  0001 C CNN
	1    3750 5300
	-1   0    0    -1  
$EndComp
Wire Wire Line
	3450 5300 3450 5400
Wire Wire Line
	3450 5400 3450 5450
Connection ~ 3450 5400
$Comp
L itays_kicad_lib:ME6211 U3
U 1 1 5D452629
P 7950 5250
F 0 "U3" H 8400 5525 50  0000 C CNN
F 1 "ME6211" H 8400 5434 50  0000 C CNN
F 2 "TO_SOT_Packages_SMD:SOT-23-5" H 7950 5250 50  0001 C CNN
F 3 "" H 7950 5250 50  0001 C CNN
	1    7950 5250
	1    0    0    -1  
$EndComp
$Comp
L Device:C_Small C7
U 1 1 5D4532C8
P 7950 5500
F 0 "C7" H 7950 5600 50  0000 L CNN
F 1 "1uF" H 7950 5400 50  0000 L CNN
F 2 "Capacitors_SMD:C_0805" H 7950 5500 50  0001 C CNN
F 3 "~" H 7950 5500 50  0001 C CNN
	1    7950 5500
	1    0    0    -1  
$EndComp
Wire Wire Line
	7950 5200 7950 5300
Wire Wire Line
	7950 5300 7950 5400
Connection ~ 7950 5300
$Comp
L itays_kicad_lib:GND #PWR0118
U 1 1 5D4556C4
P 7950 5600
F 0 "#PWR0118" H 7950 5350 50  0001 C CNN
F 1 "GND" H 7955 5427 50  0000 C CNN
F 2 "" H 7950 5600 50  0000 C CNN
F 3 "" H 7950 5600 50  0000 C CNN
	1    7950 5600
	1    0    0    -1  
$EndComp
Connection ~ 7950 5200
Text GLabel 7800 5200 0    50   Input ~ 0
V_REG
$Comp
L Device:C_Small C10
U 1 1 5D45B232
P 8950 5500
F 0 "C10" H 8950 5600 50  0000 L CNN
F 1 "1uF" H 8950 5400 50  0000 L CNN
F 2 "Capacitors_SMD:C_0805" H 8950 5500 50  0001 C CNN
F 3 "~" H 8950 5500 50  0001 C CNN
	1    8950 5500
	1    0    0    -1  
$EndComp
Wire Wire Line
	8850 5200 8950 5200
Wire Wire Line
	8950 5200 8950 5400
$Comp
L itays_kicad_lib:GND #PWR0119
U 1 1 5D45C4F5
P 8950 5600
F 0 "#PWR0119" H 8950 5350 50  0001 C CNN
F 1 "GND" H 8955 5427 50  0000 C CNN
F 2 "" H 8950 5600 50  0000 C CNN
F 3 "" H 8950 5600 50  0000 C CNN
	1    8950 5600
	1    0    0    -1  
$EndComp
$Comp
L itays_kicad_lib:+3.3V #PWR0120
U 1 1 5D45CAD8
P 8950 5200
F 0 "#PWR0120" H 8950 5050 50  0001 C CNN
F 1 "+3.3V" H 8965 5373 50  0000 C CNN
F 2 "" H 8950 5200 50  0000 C CNN
F 3 "" H 8950 5200 50  0000 C CNN
	1    8950 5200
	1    0    0    -1  
$EndComp
Connection ~ 8950 5200
$Comp
L itays_kicad_lib:GND #PWR0121
U 1 1 5D45D041
P 8400 5550
F 0 "#PWR0121" H 8400 5300 50  0001 C CNN
F 1 "GND" H 8405 5377 50  0000 C CNN
F 2 "" H 8400 5550 50  0000 C CNN
F 3 "" H 8400 5550 50  0000 C CNN
	1    8400 5550
	1    0    0    -1  
$EndComp
NoConn ~ 8850 5300
$Comp
L Interface_USB:CH340G U2
U 1 1 5C7A911B
P 4400 1900
F 0 "U2" H 4650 1350 50  0000 C CNN
F 1 "CH340C" H 4150 1350 50  0000 C CNN
F 2 "Package_SO:SOIC-16_3.9x9.9mm_P1.27mm" H 4450 1350 50  0001 L CNN
F 3 "http://www.datasheet5.com/pdf-local-2195953" H 4050 2700 50  0001 C CNN
	1    4400 1900
	1    0    0    -1  
$EndComp
NoConn ~ 4800 1800
NoConn ~ 4800 1900
NoConn ~ 4800 2000
NoConn ~ 4800 2100
$Comp
L Connector_Generic:Conn_02x08_Odd_Even J4
U 1 1 5D4631F3
P 4200 3500
F 0 "J4" H 4250 4017 50  0000 C CNN
F 1 "PI-FEMALE" H 4250 3926 50  0000 C CNN
F 2 "Socket_Strips:Socket_Strip_Straight_2x08_Pitch2.54mm" H 4200 3500 50  0001 C CNN
F 3 "~" H 4200 3500 50  0001 C CNN
	1    4200 3500
	1    0    0    -1  
$EndComp
Text GLabel 4000 3200 0    50   Input ~ 0
PI-R1
Text GLabel 4500 3200 2    50   Input ~ 0
PI-G1
Text GLabel 4000 3300 0    50   Input ~ 0
PI-B1
Text GLabel 4000 3400 0    50   Input ~ 0
PI-R2
Text GLabel 4000 3500 0    50   Input ~ 0
PI-B2
Text GLabel 4000 3600 0    50   Input ~ 0
PI-A
Text GLabel 4000 3700 0    50   Input ~ 0
PI-C
Text GLabel 4000 3800 0    50   Input ~ 0
PI-CK
Text GLabel 4000 3900 0    50   Input ~ 0
PI-OE
Text GLabel 4500 3800 2    50   Input ~ 0
PI-ST
Text GLabel 4500 3700 2    50   Input ~ 0
PI-D
Text GLabel 4500 3600 2    50   Input ~ 0
PI-B
Text GLabel 4500 3500 2    50   Input ~ 0
PI-E
Text GLabel 4500 3400 2    50   Input ~ 0
PI-G2
$Comp
L Connector_Generic:Conn_02x08_Odd_Even J5
U 1 1 5D46C0DA
P 6150 3500
F 0 "J5" H 6200 4017 50  0000 C CNN
F 1 "PO-MALE-IDE" H 6200 3926 50  0000 C CNN
F 2 "itay_kicad:IDC_2x08_Pitch2.54mm" H 6150 3500 50  0001 C CNN
F 3 "~" H 6150 3500 50  0001 C CNN
	1    6150 3500
	1    0    0    -1  
$EndComp
Text GLabel 5950 3200 0    50   Input ~ 0
PO-R1
Text GLabel 6450 3200 2    50   Input ~ 0
PO-G1
Text GLabel 5950 3300 0    50   Input ~ 0
PO-B1
Text GLabel 5950 3400 0    50   Input ~ 0
PO-R2
Text GLabel 5950 3500 0    50   Input ~ 0
PO-B2
Text GLabel 5950 3600 0    50   Input ~ 0
PO-A
Text GLabel 5950 3700 0    50   Input ~ 0
PO-C
Text GLabel 5950 3800 0    50   Input ~ 0
PO-CK
Text GLabel 5950 3900 0    50   Input ~ 0
PO-OE
Text GLabel 6450 3800 2    50   Input ~ 0
PO-ST
Text GLabel 6450 3700 2    50   Input ~ 0
PO-D
Text GLabel 6450 3600 2    50   Input ~ 0
PO-B
Text GLabel 6450 3500 2    50   Input ~ 0
PO-E
Text GLabel 6450 3400 2    50   Input ~ 0
PO-G2
Text GLabel 5150 3300 0    50   Input ~ 0
PI-R2
Text GLabel 5200 3300 2    50   Input ~ 0
PO-R1
Text GLabel 5150 3400 0    50   Input ~ 0
PI-G1
Text GLabel 5200 3400 2    50   Input ~ 0
PO-R2
Text GLabel 5150 3500 0    50   Input ~ 0
PI-G2
Text GLabel 5200 3500 2    50   Input ~ 0
PO-G1
Text GLabel 5150 3600 0    50   Input ~ 0
PI-B1
Text GLabel 5200 3600 2    50   Input ~ 0
PO-G2
Text GLabel 5150 3700 0    50   Input ~ 0
PI-B2
Text GLabel 5200 3700 2    50   Input ~ 0
PO-B1
Text GLabel 8900 3300 2    50   Input ~ 0
PI-ST
Text GLabel 8900 3100 2    50   Input ~ 0
PI-A
Text GLabel 8900 3400 2    50   Input ~ 0
PI-B
Text GLabel 8900 3000 2    50   Input ~ 0
PI-C
Text GLabel 8900 2300 2    50   Input ~ 0
PI-D
Text GLabel 8900 2700 2    50   Input ~ 0
PI-E
Text GLabel 8900 2000 2    50   Input ~ 0
PI-OE
Text GLabel 8900 2600 2    50   Input ~ 0
PI-CK
Text GLabel 8900 2500 2    50   Input ~ 0
PI-R1
$Comp
L Connector:Screw_Terminal_01x02 J3
U 1 1 5D4806CC
P 4600 5350
F 0 "J3" H 4680 5342 50  0000 L CNN
F 1 "MATRIX_POWER_5V_OUT" V 4850 4950 50  0000 L CNN
F 2 "SH_Connectors:KF7.62_2P" H 4600 5350 50  0001 C CNN
F 3 "~" H 4600 5350 50  0001 C CNN
	1    4600 5350
	1    0    0    -1  
$EndComp
$Comp
L Device:CP1_Small C2
U 1 1 5D481D80
P 5550 5350
F 0 "C2" H 5550 5450 50  0000 L CNN
F 1 "470uF" H 5550 5250 50  0000 L CNN
F 2 "Capacitors_SMD:CP_Elec_6.3x7.7" H 5550 5350 50  0001 C CNN
F 3 "~" H 5550 5350 50  0001 C CNN
	1    5550 5350
	1    0    0    -1  
$EndComp
Wire Wire Line
	5550 5250 5550 5200
Connection ~ 5550 5200
$Comp
L Device:C_Small C4
U 1 1 5CB7E6EB
P 5850 5350
F 0 "C4" H 5850 5450 50  0000 L CNN
F 1 "0.1uF" H 5850 5250 50  0000 L CNN
F 2 "Capacitors_SMD:C_0805" H 5850 5350 50  0001 C CNN
F 3 "~" H 5850 5350 50  0001 C CNN
	1    5850 5350
	1    0    0    -1  
$EndComp
Wire Wire Line
	5550 5200 5850 5200
Wire Wire Line
	5850 5200 5850 5250
Wire Wire Line
	5550 5450 5550 5500
Connection ~ 5550 5500
$Comp
L itays_kicad_lib:GND #PWR0122
U 1 1 5CB8E170
P 5550 5500
F 0 "#PWR0122" H 5550 5250 50  0001 C CNN
F 1 "GND" H 5555 5327 50  0000 C CNN
F 2 "" H 5550 5500 50  0000 C CNN
F 3 "" H 5550 5500 50  0000 C CNN
	1    5550 5500
	1    0    0    -1  
$EndComp
Wire Wire Line
	5550 5500 5850 5500
$Comp
L power:+5V #PWR0123
U 1 1 5D493EBB
P 5550 5200
F 0 "#PWR0123" H 5550 5050 50  0001 C CNN
F 1 "+5V" H 5565 5373 50  0000 C CNN
F 2 "" H 5550 5200 50  0001 C CNN
F 3 "" H 5550 5200 50  0001 C CNN
	1    5550 5200
	1    0    0    -1  
$EndComp
$Comp
L power:+5V #PWR0124
U 1 1 5D494B16
P 3450 5200
F 0 "#PWR0124" H 3450 5050 50  0001 C CNN
F 1 "+5V" H 3465 5373 50  0000 C CNN
F 2 "" H 3450 5200 50  0001 C CNN
F 3 "" H 3450 5200 50  0001 C CNN
	1    3450 5200
	1    0    0    -1  
$EndComp
$Comp
L power:+5V #PWR0125
U 1 1 5D494F7E
P 4400 5350
F 0 "#PWR0125" H 4400 5200 50  0001 C CNN
F 1 "+5V" H 4415 5523 50  0000 C CNN
F 2 "" H 4400 5350 50  0001 C CNN
F 3 "" H 4400 5350 50  0001 C CNN
	1    4400 5350
	1    0    0    -1  
$EndComp
$Comp
L itays_kicad_lib:GND #PWR0126
U 1 1 5D4954AB
P 4400 5450
F 0 "#PWR0126" H 4400 5200 50  0001 C CNN
F 1 "GND" H 4405 5277 50  0000 C CNN
F 2 "" H 4400 5450 50  0000 C CNN
F 3 "" H 4400 5450 50  0000 C CNN
	1    4400 5450
	1    0    0    -1  
$EndComp
$Comp
L power:+5V #PWR0127
U 1 1 5D4BE89E
P 6750 4900
F 0 "#PWR0127" H 6750 4750 50  0001 C CNN
F 1 "+5V" H 6765 5073 50  0000 C CNN
F 2 "" H 6750 4900 50  0001 C CNN
F 3 "" H 6750 4900 50  0001 C CNN
	1    6750 4900
	1    0    0    -1  
$EndComp
Wire Wire Line
	7800 5200 7950 5200
$Comp
L Device:C_Small C11
U 1 1 5D4C683F
P 9200 5500
F 0 "C11" H 9200 5600 50  0000 L CNN
F 1 "22uF" H 9200 5400 50  0000 L CNN
F 2 "Capacitors_SMD:C_1206" H 9200 5500 50  0001 C CNN
F 3 "~" H 9200 5500 50  0001 C CNN
	1    9200 5500
	1    0    0    -1  
$EndComp
Wire Wire Line
	8950 5200 9200 5200
Wire Wire Line
	9200 5200 9200 5400
Wire Wire Line
	9200 5600 8950 5600
Connection ~ 8950 5600
$Comp
L itays_kicad_lib:GND #PWR0128
U 1 1 5D4D8462
P 4500 3900
F 0 "#PWR0128" H 4500 3650 50  0001 C CNN
F 1 "GND" H 4505 3727 50  0000 C CNN
F 2 "" H 4500 3900 50  0000 C CNN
F 3 "" H 4500 3900 50  0000 C CNN
	1    4500 3900
	1    0    0    -1  
$EndComp
$Comp
L itays_kicad_lib:GND #PWR0129
U 1 1 5D4D8A42
P 6450 3900
F 0 "#PWR0129" H 6450 3650 50  0001 C CNN
F 1 "GND" H 6455 3727 50  0000 C CNN
F 2 "" H 6450 3900 50  0000 C CNN
F 3 "" H 6450 3900 50  0000 C CNN
	1    6450 3900
	1    0    0    -1  
$EndComp
$Comp
L itays_kicad_lib:GND #PWR0130
U 1 1 5D4D92CF
P 6450 3300
F 0 "#PWR0130" H 6450 3050 50  0001 C CNN
F 1 "GND" V 6455 3127 50  0000 C CNN
F 2 "" H 6450 3300 50  0000 C CNN
F 3 "" H 6450 3300 50  0000 C CNN
	1    6450 3300
	0    -1   -1   0   
$EndComp
$Comp
L itays_kicad_lib:GND #PWR0131
U 1 1 5D4D9818
P 4500 3300
F 0 "#PWR0131" H 4500 3050 50  0001 C CNN
F 1 "GND" V 4505 3127 50  0000 C CNN
F 2 "" H 4500 3300 50  0000 C CNN
F 3 "" H 4500 3300 50  0000 C CNN
	1    4500 3300
	0    -1   -1   0   
$EndComp
Wire Wire Line
	5150 3300 5200 3300
Wire Wire Line
	5200 3400 5150 3400
Wire Wire Line
	5150 3500 5200 3500
Wire Wire Line
	5200 3600 5150 3600
Wire Wire Line
	5150 3700 5200 3700
$Comp
L Switch:SW_Push SW1
U 1 1 5C7A9F9A
P 7300 2000
F 0 "SW1" H 7150 2150 50  0000 L CNN
F 1 "RESET" H 7345 2148 50  0000 L CNN
F 2 "Buttons_Switches_SMD:SW_SPST_SKQG" H 7300 2200 50  0001 C CNN
F 3 "" H 7300 2200 50  0001 C CNN
	1    7300 2000
	0    1    1    0   
$EndComp
$Comp
L itays_kicad_lib:+3V3 #PWR0104
U 1 1 5C7A998D
P 8300 1600
F 0 "#PWR0104" H 8300 1450 50  0001 C CNN
F 1 "+3V3" H 8450 1600 50  0000 C CNN
F 2 "" H 8300 1600 50  0000 C CNN
F 3 "" H 8300 1600 50  0000 C CNN
	1    8300 1600
	1    0    0    -1  
$EndComp
Connection ~ 8300 1600
Wire Wire Line
	8050 1600 8300 1600
Wire Wire Line
	8050 1400 8150 1400
Connection ~ 8050 1400
Wire Wire Line
	8050 1400 8050 1600
Wire Wire Line
	7950 1400 8050 1400
$Comp
L itays_kicad_lib:GND #PWR0116
U 1 1 5C7AB105
P 8050 1200
F 0 "#PWR0116" H 8050 950 50  0001 C CNN
F 1 "GND" H 8055 1027 50  0000 C CNN
F 2 "" H 8050 1200 50  0000 C CNN
F 3 "" H 8050 1200 50  0000 C CNN
	1    8050 1200
	-1   0    0    1   
$EndComp
Connection ~ 8050 1200
Wire Wire Line
	8150 1200 8050 1200
Wire Wire Line
	8050 1200 7950 1200
$Comp
L Device:C_Small C8
U 1 1 5C7AAE2C
P 7950 1300
F 0 "C8" H 7859 1254 50  0000 R CNN
F 1 "10uF" H 7859 1345 50  0000 R CNN
F 2 "Capacitors_SMD:C_1206" H 7950 1300 50  0001 C CNN
F 3 "~" H 7950 1300 50  0001 C CNN
	1    7950 1300
	1    0    0    -1  
$EndComp
$Comp
L Device:C_Small C9
U 1 1 5C7AADF4
P 8150 1300
F 0 "C9" H 8059 1254 50  0000 R CNN
F 1 "0.1uF" H 8059 1345 50  0000 R CNN
F 2 "Capacitors_SMD:C_0805" H 8150 1300 50  0001 C CNN
F 3 "~" H 8150 1300 50  0001 C CNN
	1    8150 1300
	-1   0    0    -1  
$EndComp
$Comp
L Device:C_Small C1
U 1 1 5D6487B6
P 5250 5350
F 0 "C1" H 5250 5450 50  0000 L CNN
F 1 "22uF" H 5250 5250 50  0000 L CNN
F 2 "Capacitors_SMD:C_1206" H 5250 5350 50  0001 C CNN
F 3 "~" H 5250 5350 50  0001 C CNN
	1    5250 5350
	1    0    0    -1  
$EndComp
Wire Wire Line
	5250 5200 5250 5250
Wire Wire Line
	5250 5200 5550 5200
Wire Wire Line
	5250 5500 5250 5450
Wire Wire Line
	5250 5500 5550 5500
Text Notes 8100 4850 0    50   ~ 0
3v3 step down
Text Notes 10600 7650 0    50   ~ 0
1.1
Text Notes 7400 7500 0    50   ~ 0
ESP32 Led Matrix Driver
Text Notes 8850 7750 0    50   ~ 0
Itay Sperling
Text Notes 4100 950  0    50   ~ 0
USB TO SERIAL
Text Notes 5550 1300 0    50   ~ 0
FLASHING MECHANISM
Text Notes 4500 3000 0    50   ~ 0
IN/OUT LED MATRIX PANEL CONNECTORS
$Bitmap
Pos 5950 2150
Scale 1.000000
Data
89 50 4E 47 0D 0A 1A 0A 00 00 00 0D 49 48 44 52 00 00 00 96 00 00 00 C0 08 02 00 00 00 69 B4 0D 
5F 00 00 00 03 73 42 49 54 08 08 08 DB E1 4F E0 00 00 00 09 70 48 59 73 00 00 0E 74 00 00 0E 74 
01 6B 24 B3 D6 00 00 20 00 49 44 41 54 78 9C ED 9D 77 5C 14 47 FF C7 67 29 47 47 4E 50 8E 12 44 
09 88 10 11 81 80 52 44 51 51 1F 10 92 48 10 10 88 12 45 C0 A8 18 0B 96 D8 C5 3C 96 44 01 7B 57 
AC D1 C4 02 8A E0 CF 10 01 29 52 04 14 29 82 F4 DE 0F B8 7E BB BF 3F 36 D9 E7 72 E0 69 E2 EC 91 
BB DC FB E5 CB D7 ED EC 70 9F EF DD E7 76 77 F6 3B B3 33 08 86 61 40 86 24 23 37 DC 01 C8 F8 50 
64 16 4A 3C 32 0B 25 1E 99 85 12 8F CC 42 89 47 66 A1 C4 23 B3 50 E2 91 59 28 F1 C8 2C 94 78 64 
16 4A 3C 32 0B 25 1E 99 85 12 0F 64 0B 77 EE DC 79 EE DC 39 FC 75 7B 7B FB 9A 35 6B CC CD CD CD 
CD CD 37 6F DE DC D7 D7 07 00 40 51 34 24 24 24 23 23 03 AE 2E 0E 8B C5 F2 F3 F3 7B FE FC 39 BE 
E9 EE EE 6E 6C 6C 6C 6C 6C 3C 76 EC 58 63 63 E3 BD 7B F7 02 00 3A 3A 3A BC BC BC DA DB DB C9 08 
E0 E2 C5 8B DB B6 6D 13 2C 61 B3 D9 BE BE BE BB 77 EF 26 4A B6 6C D9 F2 D3 4F 3F C1 54 C5 E0 91 
9F 9F 6F 61 61 D1 DD DD 8D 61 58 7F 7F BF A3 A3 A3 A1 A1 61 78 78 78 70 70 B0 86 86 46 48 48 08 
5E ED F1 E3 C7 F6 F6 F6 FD FD FD 10 A5 71 E2 E2 E2 16 2E 5C C8 E7 F3 31 0C EB EA EA 52 55 55 0D 
08 08 58 FF 07 89 89 89 78 B5 DD BB 77 2F 5D BA 14 BA 7A 6D 6D AD A5 A5 E5 EB D7 AF 05 0B 7F FC 
F1 47 04 41 22 23 23 89 92 37 6F DE 8C 1B 37 AE B9 B9 19 96 2E 34 0B F9 7C BE 87 87 C7 E1 C3 87 
F1 CD 73 E7 CE 29 29 29 95 94 94 E0 9B 71 71 71 5A 5A 5A 7D 7D 7D 18 86 71 B9 5C 77 77 F7 D8 D8 
58 58 D2 38 DD DD DD 63 C6 8C C9 CD CD C5 37 33 32 32 34 34 34 1A 1A 1A 06 D7 EC E8 E8 A0 D1 68 
85 85 85 70 03 58 B9 72 E5 37 DF 7C 23 58 F2 FC F9 F3 71 E3 C6 99 9A 9A 0A 5A 88 61 D8 F2 E5 CB 
57 AF 5E 0D 4B 17 9A 85 85 85 85 AA AA AA 9D 9D 9D F8 A6 B7 B7 B7 8F 8F CF DB 2A 5F BD 7A D5 C4 
C4 84 C7 E3 C1 52 C7 30 2C 36 36 D6 C9 C9 89 C3 E1 E0 9B 31 31 31 13 27 4E AC AE AE BE 77 EF 5E 
5A 5A 1A 97 CB 15 AC 1C 1A 1A BA 78 F1 62 88 EA 4D 4D 4D A3 46 8D CA CB CB 23 4A FA FA FA 1C 1C 
1C CE 9F 3F EF EA EA 2A 64 61 66 66 A6 AE AE 2E AC 03 11 DA B5 F0 DA B5 6B F6 F6 F6 23 47 8E 04 
00 B0 D9 EC AA AA AA 09 13 26 44 45 45 19 18 18 68 6B 6B 2F 5F BE BC B3 B3 93 A8 EC E2 E2 D2 DC 
DC 9C 97 97 07 4B 1D C3 B0 6B D7 AE CD 9A 35 4B 51 51 11 2F 29 28 28 68 6B 6B B3 B5 B5 F5 F6 F6 
76 73 73 73 74 74 6C 68 68 20 EA CF 9A 35 2B 39 39 B9 BF BF 1F 56 00 0F 1E 3C A0 52 A9 13 26 4C 
20 4A B6 6E DD 3A 7E FC F8 C0 C0 C0 C1 95 6D 6D 6D 01 00 A9 A9 A9 50 A4 E1 58 88 61 58 6E 6E EE 
E4 C9 93 F1 4D 0E 87 C3 64 32 CF 9E 3D 9B 9C 9C 1C 1E 1E FE F5 D7 5F 27 26 26 0A 7E 18 6D 6D 6D 
23 23 A3 9C 9C 1C 28 EA 00 00 36 9B 5D 54 54 64 63 63 83 6F A2 28 DA D1 D1 A1 A3 A3 73 FB F6 ED 
86 86 86 A4 A4 24 3A 9D 1E 1E 1E CE E3 F1 F0 0A 93 27 4F 6E 6B 6B AB AA AA 82 15 40 4E 4E CE F8 
F1 E3 55 55 55 F1 CD A4 A4 A4 C7 8F 1F EF DB B7 4F 4E 6E 88 6F 98 42 A1 58 5A 5A 66 66 66 42 91 
56 80 F2 2E 2C 16 AB B9 B9 79 CE 9C 39 F8 26 82 20 72 72 72 2A 2A 2A 4F 9E 3C 19 31 62 04 00 C0 
D5 D5 D5 DB DB BB A4 A4 C4 D2 D2 12 00 40 A1 50 B4 B5 B5 EB EB EB A1 A8 03 00 9A 9B 9B 19 0C 86 
AE AE 2E BE 29 27 27 77 FD FA 75 16 8B A5 A3 A3 03 00 D0 D7 D7 DF BC 79 73 78 78 78 67 67 27 5E 
47 4F 4F 0F 41 90 FA FA FA 49 93 26 41 09 A0 BA BA DA D8 D8 18 7F DD DE DE 1E 19 19 79 E4 C8 11 
1A 8D 86 A2 E8 90 F5 F5 F5 F5 61 7D 7C 38 47 21 8A A2 3C 1E 4F 41 E1 F7 1F 84 8A 8A 8A 96 96 96 
9D 9D 1D EE 1F 00 C0 DE DE 5E 4E 4E AE AE AE EE 77 55 39 39 45 45 45 26 93 09 45 1D 00 C0 66 B3 
01 00 44 00 38 54 2A 95 78 3D 66 CC 18 36 9B 4D 28 2A 29 29 01 00 58 2C 16 C4 00 08 F5 0B 17 2E 
34 36 36 EE DA B5 CB D5 D5 75 C6 8C 19 45 45 45 B7 6E DD 9A 3D 7B 76 5B 5B 1B 51 5F 59 59 19 96 
3A 1C 0B 95 95 95 47 8C 18 D1 DD DD 8D 6F CA CB CB 4F 9E 3C 39 37 37 97 C3 E1 E0 25 6F DE BC 41 
51 D4 C8 C8 08 DF E4 72 B9 74 3A 7D D4 A8 51 50 D4 01 00 7A 7A 7A 00 80 9E 9E 1E 7C 93 C1 60 E8 
E9 E9 C5 C4 C4 10 15 9E 3D 7B 46 A3 D1 B4 B5 B5 F1 4D BC D9 85 1F A3 50 A0 D1 68 84 FA B8 71 E3 
3C 3D 3D F5 F5 F5 69 34 1A 8D 46 A3 50 28 6A 6A 6A BA BA BA F2 F2 F2 44 7D FC 3C 0F 47 1B 4A A3 
08 C3 B0 90 90 90 05 0B 16 10 9B 85 85 85 6A 6A 6A 5E 5E 5E 0F 1E 3C B8 72 E5 8A 95 95 95 B3 B3 
33 B1 B7 A7 A7 47 57 57 F7 97 5F 7E 81 A5 CE E7 F3 4D 4D 4D E3 E2 E2 88 92 88 88 08 1D 1D 9D B8 
B8 B8 47 8F 1E 1D 3C 78 50 53 53 33 3A 3A 9A D8 9B 91 91 A1 AA AA 0A F1 E6 EC FB EF BF B7 B5 B5 
15 6A F7 E2 81 0D 6E 91 62 18 66 69 69 B9 7F FF 7E 28 D2 D0 2C BC 7E FD BA 81 81 01 D1 A6 C7 30 
2C 21 21 61 FC F8 F1 F8 45 71 DE BC 79 75 75 75 C4 AE 8C 8C 0C 75 75 F5 F6 F6 76 58 EA 18 86 85 
85 85 F9 FA FA A2 28 8A 6F D2 E9 F4 A0 A0 20 FC 4C AE AB AB 1B 15 15 25 18 5B 74 74 B4 B3 B3 F3 
E0 6F FC 6F 93 95 95 35 6A D4 A8 9A 9A 1A A1 F2 21 2D AC AD AD D5 D0 D0 C8 CF CF 87 22 0D CD C2 
DE DE 5E 43 43 C3 D4 D4 54 C1 C2 FE FE FE F2 F2 F2 37 6F DE 08 7D 59 2B 57 AE 0C 0E 0E 86 25 8D 
93 95 95 65 68 68 D8 D2 D2 42 94 F0 F9 FC FA FA FA B2 B2 B2 D6 D6 56 C1 9A 5C 2E D7 D6 D6 F6 DC 
B9 73 10 D5 B9 5C EE A7 9F 7E 7A EA D4 A9 C1 BB EA EA EA 84 02 88 89 89 99 3E 7D BA E0 4F EA 43 
80 99 60 DB BF 7F BF 8F 8F 0F 9E DF 12 41 4B 4B 8B A9 A9 69 41 41 01 44 69 0C C3 50 14 F5 F4 F4 
24 D2 43 22 78 F2 E4 89 A9 A9 29 83 C1 80 1B C0 AD 5B B7 1C 1C 1C 98 4C A6 E8 6A 5C 2E D7 CA CA 
2A 21 21 01 96 2E 4C 0B 07 06 06 6C 6C 6C 72 72 72 44 57 DB BE 7D FB FA F5 EB 21 EA 12 14 17 17 
4F 9E 3C 99 C8 10 0D 09 87 C3 99 37 6F DE DD BB 77 A1 AB 73 38 1C 6F 6F EF 6B D7 AE 89 AE 16 1F 
1F FF 3E 3F F4 F7 07 A6 85 18 86 BD 7E FD 5A B4 85 7C 3E 3F 31 31 71 60 60 00 AE 2E 41 46 46 46 
75 75 B5 88 0A 3D 3D 3D 0F 1E 3C 20 49 BD B5 B5 F5 D1 A3 47 A2 EB A4 A4 A4 88 FE 91 FD 55 10 4C 
F6 4C 85 84 23 EB F2 95 78 48 B7 90 CF E7 33 99 CC B7 E5 99 C8 06 45 51 26 93 C9 E7 F3 87 45 1D 
C3 30 16 8B 45 24 66 49 02 4E 8E 74 48 B8 5C EE F1 63 C7 1E FD 5F 0A 85 42 E1 F1 78 5F FA F8 06 
06 05 91 27 37 98 6B 57 AF DE BC 79 4B 5E 0E 61 B3 D9 33 66 CE 8C 88 88 C0 F3 6A E2 E1 F1 E3 C7 
E7 CE 9C E1 B0 59 1C 3E CF D6 D6 6E D5 AA D5 5A 5A 5A A4 28 41 BC AE 0A C2 60 30 16 F9 07 C4 C5 
C5 B2 58 2C 0C C3 7A 7A 7A 76 6C DF BE 3C 34 14 6E 1F E1 DB 40 51 74 45 44 C4 77 5B B6 E0 43 08 
D8 6C F6 D1 A3 47 16 7C B1 00 EF 73 16 03 FB F6 ED 5B B6 74 69 53 53 13 86 61 7C 3E FF 97 5F 7E 
99 35 6B D6 90 FD CF 1F 0E 59 16 1E 3C 70 E0 E8 91 A3 82 25 28 8A 7E B7 65 CB 8D 1B 37 48 52 14 
24 31 21 61 FD BA 75 44 A6 06 E7 CC E9 D3 7B 05 72 6C E4 51 5C 5C BC 70 E1 97 6C 36 5B B0 F0 D7 
5F 7F 5D BE 6C 19 19 72 A4 58 C8 E5 72 BD 3C E7 0F BE C9 6D 6A 6A 0A F0 F7 27 43 51 88 A0 C0 C0 
FA FA 7A A1 42 16 8B E5 3D DF 4B E8 9B 25 83 6D 5B B7 3E 79 F2 44 A8 10 45 51 FF 85 0B DB DA DA 
A0 CB 91 D2 9C 19 18 18 50 55 53 55 56 56 16 2A D7 D3 D3 A3 D3 FB C8 50 14 A2 BB A7 CB D0 D0 50 
A8 50 49 49 49 43 43 1D 62 4F FD DB 68 6E 6E FE F8 E3 8F 85 0A 11 04 D1 A5 E9 12 BD 19 10 21 C5 
42 35 35 35 26 8B 39 B8 3B B0 A1 A1 81 4A 25 E7 92 FE 67 74 46 EA 10 7D 93 04 2C 16 AB AF 7F 40 
43 43 83 6C F5 8F 3E 32 AA A8 A8 18 5C DE DA D2 4A 46 8B 86 14 0B 15 14 14 A6 BB 4E 3F 7B E6 8C 
50 79 CC E1 C3 0B 7C 7C C8 50 14 62 A1 BF FF C1 03 07 B0 3F 67 2D 2E 5D BC E8 E8 E8 48 0C AE 21 
0F 3F 7F BF D8 98 58 2E 97 2B 58 98 9C 9C AC AD A3 03 B1 8B F4 7F 40 3F 35 E3 B0 58 2C 7F BF 85 
3F 1C 3C 88 27 E9 1B 1A 1A 36 6D DC B8 26 32 52 3C 2D 52 3E 9F BF 6E DD BA F5 EB D6 E1 3D 5C ED 
ED ED 87 0F 1D 5A E8 BB 10 7A 6A FB 6D 9C 3C 71 62 71 70 50 79 79 39 8A A2 FD FD FD 57 AF 5C F1 
F4 F0 10 EC 45 81 08 89 09 36 36 9B 1D 7F E9 52 72 CA C3 D7 15 15 9F 7C 32 D1 CB CB FB 8B 05 0B 
84 C6 46 90 07 9F CF BF 7D FB F6 BD 3B 77 5E BC 2C 36 F9 D8 74 D6 CC 59 8B 97 2C 19 7C 79 26 09 
0C C3 9E FC F6 DB D5 2B 97 0B 0B 0B 69 34 9A B3 CB B4 65 A1 A1 82 03 41 20 8B 91 4A 6F 6F AF BF 
DF 42 B2 55 44 B0 28 C0 BF A7 A7 67 B8 D4 57 AF 5A 29 34 BE 1B 3A E2 C8 91 22 00 11 83 8A 28 7D 
A9 46 96 E6 96 78 64 16 4A 3C 32 0B 25 1E 99 85 12 8F CC 42 89 47 66 A1 C4 23 B3 50 E2 91 59 28 
F1 C8 2C 94 78 64 16 4A 3C 32 0B 25 1E 99 85 12 8F F4 5B C8 E7 F3 5A 5B 5B 87 3B 0A 12 11 53 EF 
DD 30 E2 E7 1F B0 7B E7 4E 16 9B 63 6E 6E EE EC E2 6C 65 65 45 A3 D1 10 44 7A BA 2F A4 FF 28 F4 
F6 F6 3E 7B FE FC F6 1D DB 59 4C C6 E2 C0 45 3E 0B BE E8 EA EA 1A EE A0 60 22 B5 47 21 8A A2 9D 
9D 9D E9 E9 E9 99 19 19 E5 E5 65 5A 5A 23 ED 1D EC 13 92 1E 5A 5A 5A AA A8 A8 0C 77 74 30 91 36 
0B 51 14 BD 7F FF FE AF 8F FF AF AE B6 4E 49 49 C9 D1 C9 71 51 50 90 95 95 95 E0 54 05 52 86 E4 
59 D8 D7 D7 87 4F 9F 06 00 30 35 35 C5 E7 BA 20 40 51 B4 B8 B8 F8 65 71 B1 16 95 6A 6B 6B 6B 63 
6B 67 62 62 22 C5 FE 01 49 B4 B0 B4 B4 74 CF 9E 3D 6E 6E 6E 5C 2E 77 F7 EE DD F1 F1 F1 34 1A 8D 
D8 AB A0 A0 B0 65 CB 96 A8 A8 A8 8E 8E 8E FC FC FC 07 F7 EF FF 70 F0 07 75 35 D5 89 13 27 BA B8 
BA 9A 99 99 91 35 06 69 F8 90 3C 0B 01 00 4E 4E 4E 51 51 51 F8 D5 AE A6 A6 46 D0 42 1C 05 05 05 
1A 8D E6 E1 E1 E1 E1 E1 81 A2 68 53 53 53 E1 F3 E7 17 CE 9E CD CA CE 9E 30 C1 E2 F8 C9 13 64 3D 
64 34 1C 48 A4 85 57 AE 5C C9 CE CE EE EB EB B3 B4 B4 14 31 03 17 8A A2 0C 06 23 2F 2F 2F 23 3D 
3D BF 20 4F 49 91 F2 F9 82 2F 5C 5D A7 AB A9 A9 89 33 5A B2 91 48 0B 17 2D 5A B4 79 F3 E6 B5 6B 
D7 DA D8 D8 A8 A8 A8 B4 B4 B4 64 67 67 7F F6 D9 67 F8 DE DE DE DE 9C EC EC B4 B4 27 AF 4A 5F 29 
2A 28 5A 5B 4F 76 72 76 8E 5C B3 46 5D 5D 7D 78 C3 26 09 89 B4 10 00 A0 A0 A0 10 1D 1D ED E1 E1 
61 6F 6F 5F 53 53 53 59 59 89 97 B3 D9 EC E0 E0 E0 F4 DF 52 17 7C F9 E5 A6 4D 5B 26 4D 9A 44 A1 
50 86 37 54 B2 91 3C 0B 8D 8C 8C DC DD DD 01 00 EA EA EA 87 0E 1D 6A 6B 6B 9B 3A 75 6A 49 49 09 
BE 57 49 49 E9 C6 8D 1B 2D 2D 2D 19 19 19 F1 97 2E EE A9 AB D3 A3 D1 EC EC 3E 9D 32 75 AA 89 89 
89 94 DD 11 E2 48 9E 85 F8 DC 74 F8 6B 7C 02 52 3A 9D 4E 4C B9 08 00 50 56 56 C6 67 55 0F 0C 0C 
64 B3 D9 F5 F5 F5 05 F9 F9 17 CE 9F AF AE AE 56 55 55 75 99 36 2D 38 38 58 6C 23 F3 C5 80 34 24 
D8 34 35 35 97 2D 5B 36 E4 2E 0A 85 A2 A7 A7 67 36 7E FC 58 63 63 15 65 E5 DA DA 9A 37 55 55 42 
CF 1C 49 3A 92 77 14 BE 0F 3C 1E AF A0 A0 20 2D ED 49 76 76 0E 87 CD 31 37 1F EF 32 6D 9A AF 9F 
1F 29 CF 86 0D 37 D2 66 21 87 C3 59 BE 7C F9 83 07 89 D3 A6 4D 5B BC 38 64 D9 B2 50 4D 4D 4D 69 
EA 97 18 8C B4 59 48 A1 50 D6 AD 5B E7 E0 E0 90 9F 97 77 EA E4 A9 94 E4 64 F7 39 73 3C 3C 3C 86 
3B 2E 12 91 36 0B 01 00 96 96 96 F8 0C E0 FD FD FD 35 35 35 9B 36 6E 9A 36 6D 9A 18 9E CF 1E 2E 
A4 A1 39 F3 36 D4 D5 D5 3F F9 E4 93 11 23 34 87 6B EE 29 F1 20 CD 16 FE 4B 90 59 28 F1 C8 2C 94 
78 64 16 4A 3C 32 0B 25 1E 99 85 12 8F 14 DE 17 92 CA C3 87 0F A7 4E 9D 2A 98 55 6F 6B 6B 3B 7D 
EA 14 00 00 20 08 C0 B0 3F FD 0F 00 93 C1 14 AC 4C 06 32 0B FF 1A 89 09 09 E6 E6 E6 82 AE 50 A9 
D4 C4 FB 09 05 79 F9 18 C0 10 80 00 0C 43 10 04 C3 30 80 00 EA 48 ED E4 94 47 64 27 66 65 27 D2 
BF C6 E0 64 AB A2 A2 E2 FA F5 51 72 00 C8 61 18 02 00 F1 4F 41 41 E1 BF FF DD 07 6B 65 36 11 C8 
2C 84 80 B7 B7 F7 44 2B 2B 20 60 30 06 40 50 F0 E2 A0 E0 60 31 A8 CB 2C FC 50 50 14 7D F6 EC 99 
92 92 12 82 FC EF CB 9C 34 69 F2 BE FD FB C5 33 7E 55 66 E1 07 91 91 91 11 10 E0 7F E3 FA 8D F3 
97 E2 27 59 FF BE 88 AA AA 9A FA 85 F8 4B 64 B7 62 08 C4 D1 9C C1 80 F4 AC 66 82 7F 12 0C C3 D2 
D2 D2 4E 9E 38 A1 AF AF B7 6F DF FE 31 63 C6 00 00 D6 6F DC 18 E4 EF 8F C8 81 C3 B1 B1 16 16 16 
62 0B 89 74 0B 15 15 15 19 4C 46 6E 6E AE 9D 9D DD 7B 76 BD FE FA EB AF 6E 6E 6E 64 07 F6 F7 C0 
30 2C F3 E9 D3 EF 36 6F 32 30 FC 68 4F 74 F4 D8 B1 63 89 0F E5 E1 E1 31 D9 CE 6E E2 C4 89 8B 86 
5A 82 99 DC 98 C8 A6 B4 B4 F4 9B 15 2B 16 07 7F 95 91 91 F1 3E 53 CA 7A 7A 78 40 54 5F 14 10 00 
71 32 CB 90 25 4B 56 44 84 57 56 56 0E B9 F7 D9 B3 67 F8 B2 0A E2 44 1C 27 52 73 73 F3 B8 23 47 
5E BD 7A 15 73 F8 F0 91 B8 B8 6F 56 AE 9C 32 65 8A A8 4B 3D E4 71 12 30 4F E3 CA 2A CA EB D6 6F 
20 56 5E 16 E2 D3 4F 3F 15 F1 B7 BD BD BD D7 AE 5D C3 5F 5B 59 59 4D 99 32 85 C3 E1 5C BE 7C 99 
C7 E3 E1 B7 92 72 72 72 9F 7F FE 39 71 1F D9 DD DD 7D FF FE 7D 79 79 79 4F 4F 4F 11 5D D6 E2 6B 
CE 58 58 58 9C 3C 75 6A DB F6 ED 97 2E 5E 5C E8 BB F0 E9 D3 A7 E2 52 86 F9 83 F8 90 F7 6A 69 69 
39 7F FE BC 81 81 81 81 81 C1 99 33 67 B6 6F DF 8E 20 88 BE BE BE 81 81 41 5C 5C 9C 96 96 96 BE 
BE 3E 31 75 38 83 C1 F0 F3 F3 63 32 99 9D 9D 9D BE BE BE A2 46 DD 89 F9 A8 C7 A9 A8 A8 08 0B 5D 
F6 E5 17 9F A7 A5 A5 09 2D 08 82 61 98 A7 A7 27 44 2D B8 B3 02 AF 88 88 10 BD B8 9E 08 CA CA CA 
E6 CF 9F 8F BF E6 F1 78 9E 9E 9E 55 55 55 F8 A6 B3 B3 33 7E 06 E6 70 38 7B F6 EC 59 BB 76 ED A5 
4B 97 88 C5 2E 9C 9C 9C 44 AC 97 37 3C 09 36 53 53 D3 63 27 4E 96 97 97 C7 C6 C4 1C 3B 7A 34 2C 
3C DC D9 D9 F9 7F A7 56 A8 D3 85 8F D6 A5 7D B3 62 85 BC BC 3C 40 00 C0 C0 EF FF 13 08 16 12 BB 
86 2C 04 00 00 50 F2 E2 05 94 A8 E4 E5 E5 CD CD CD AB AB AB C7 8D 1B 27 58 CE E3 F1 62 63 63 13 
12 12 8C 8D 8D 47 8F 1E 0D 00 A8 AC AC 54 53 53 13 F1 40 C8 B0 E5 48 11 04 31 37 37 3F 7A EC D8 
AB 57 AF 8E 1F 3B 7A FC F8 B1 15 2B BE 71 74 74 FC FD BB 86 47 74 74 34 83 C1 80 F5 6E 9B 36 46 
C1 7A 2B 0E 87 23 27 37 C4 85 CC C8 C8 C8 CE CE 0E DF 55 5F 5F BF 72 E5 CA C3 87 0F 8B 78 32 64 
98 D3 DC 08 82 58 5A 5A 1E 39 7A EC D5 AB 57 71 B1 B1 47 E3 8E AC 5C BD 0A EE 68 25 15 15 15 88 
8F 52 28 42 7A C8 86 C3 E1 BC 7E FD DA CC CC 6C F0 2E 62 11 81 82 82 82 6D DB B6 ED DD BB 77 C2 
84 09 22 DE EA 9F D2 53 61 61 61 71 FC C4 89 D2 D2 D2 98 C3 87 6A 6B 6B 87 3B 1C B2 68 6C 6C BC 
7A F5 2A 00 20 21 21 C1 C9 C9 C9 C0 C0 E0 6D 35 5B 5A 5A 7C 7D 7D 83 82 82 4A 4B 4B 4B 4B 4B 3D 
3C 3C DE 96 EE 11 B5 4E 45 7A 7A 3A BE CA B7 82 82 82 9B 9B 5B 40 40 40 69 69 E9 81 03 07 F0 AB 
28 82 20 4A 4A 4A 27 4F 9E 14 BC 3D E8 EC EC BC 79 F3 66 58 58 D8 07 7C 4C 30 7F BE 67 42 42 E2 
87 BC 03 79 2C FD FA 6B 13 13 93 6F 56 AE FC 1B 03 53 FB FA FA 12 12 12 F0 D7 36 36 36 E6 E6 E6 
C4 AE 47 8F 1E 4D 9F 3E 5D 51 51 91 CF E7 3F 7E FC D8 DD DD BD B5 B5 F5 F1 E3 C7 44 05 11 16 8A 
6A 91 5E B8 70 61 EB D6 AD 5D 5D 5D CD CD CD 1B 36 6C D8 B5 6B 17 97 CB ED EA EA 7A FE FC F9 DC 
B9 73 BB BA BA 84 6E 63 CB CB CB DD DC DC BC BD BD FF 5E 83 8D C0 D3 13 E6 AD 3D 5C C2 C3 C2 76 
6C DB 36 D7 DD 3D 2E 36 56 FC 77 F1 43 F2 8E FB 42 65 65 65 2A 95 4A A3 D1 B6 6E DD FA F0 E1 43 
00 00 95 4A 1D 31 62 84 A2 A2 22 95 4A D5 D2 D2 2A 28 28 F8 F2 CB 2F 3D 3D 3D 73 72 72 EE DC B9 
B3 74 E9 52 08 2B 75 FE 83 53 AA 72 72 C8 57 4B 96 DC B8 79 53 5E 5E 21 70 D1 A2 23 71 71 DD DD 
DD C3 1B D2 FB 5E 0B D5 D5 D5 D5 D5 D5 7B 7A 7A 74 74 74 04 CB 59 2C 56 6B 6B EB C3 87 0F 29 14 
8A 83 83 C3 AB 57 AF EE DC B9 F3 81 31 F5 74 F7 AC 5E B5 0A 20 08 86 61 C8 1F 23 18 70 FE 3C AA 
61 08 FE D8 85 00 F0 7B EF B9 9E 9E FE DA 75 6B 61 AD B6 85 37 96 35 35 35 C3 23 C2 03 16 05 5C 
BB 7A 35 20 C0 DF E3 3F 1E C1 5F 7D A5 A9 A9 09 45 E2 AF F2 BE 16 72 B9 5C 26 93 39 64 D3 CE DC 
DC 5C 55 55 15 62 4C EA 1A 1A AB 23 23 61 BD DB FA 75 EB 19 0C 06 19 5D 3F 23 46 8C 08 0B 0F 0F 
0C 0A BA 1C 1F FF F9 67 9F 7F FE F9 67 4B 42 42 C4 3F 17 C3 FB 5A 58 52 52 32 72 E4 C8 21 E3 83 
FE E8 97 82 82 82 D0 0D EF 87 A0 A2 42 EE 03 BD EA EA EA 61 E1 E1 8B 97 2C B9 70 FE BC B7 97 97 
97 97 D7 92 90 10 71 3E 85 F3 0E 0B EF DD BB D7 D0 D0 C0 E3 F1 1A 1B 1B F7 EF DF 2F 9E 98 FE D1 
17 C3 B7 A0 AC AC 1C 16 1E 1E 14 1C 7C E5 F2 65 9F 05 5F CC 9F EF 15 18 14 24 A6 D9 6D 44 34 75 
FA FB FB 6B 6B 6B 6B 6B 6B EB EB EB 05 17 E6 E5 F1 78 C4 9A B4 6C 36 5B 30 7D C7 E1 70 DA DB DB 
DF D9 88 7A DB 4A 7E 7C 3E 3F 2B 2B CB D1 D1 F1 3D 1A 62 EF 0B DC CE A6 15 11 E1 EF CC 91 D2 E9 
F4 E3 C7 8E 79 FE 67 5E 6C 4C 8C 88 DC 26 2C 44 B5 48 D5 D4 D4 8C 8C 8C 8C 8C 8C 0C 0D 0D 05 E7 
17 90 97 97 27 3A 44 28 14 CA C8 91 23 89 5D 8A 8A 8A 42 ED 9D C1 A4 A7 A7 7F F1 99 B7 50 D2 8B 
CF E7 E7 E6 E6 2E 0D 59 72 FD DA 55 79 F9 7F EE 70 10 87 29 53 DF 39 7F 8D 86 86 46 58 78 F8 E5 
AB D7 14 29 94 80 00 7F 32 D6 EF FD 13 64 FF 46 84 68 69 69 B1 B4 30 57 51 54 38 77 F6 2C 5E 82 
A2 68 5E 5E 5E 70 50 D0 8A 88 88 B2 B2 32 0C F6 7D 21 DC A3 F0 AF B2 7A D5 2A B2 D7 2F 14 6B 82 
0D 45 D1 15 11 2B 2A 2B 5E 03 0C 3B B8 7F DF A2 C0 C0 C2 C2 C2 23 B1 B1 9A 23 46 7C B7 75 AB A9 
A9 A9 38 83 11 17 A4 5F D7 C5 6A E1 A1 1F 7F BC 9F 70 0F 00 80 20 C8 9B AA AA D9 33 DD 26 59 4F 
DE B6 63 87 89 89 89 74 CF 68 40 2A E2 B3 F0 E9 D3 A7 BB 76 EC C4 50 3E 82 00 0C 43 01 90 6B 69 
6A 4A 4A 4E 81 7B 4F F9 2F 44 4C 0D 87 A6 A6 A6 D0 AF BF E6 B0 89 95 EE 11 00 40 6D 6D ED 4F 37 
6E 88 27 00 29 46 1C 16 B2 D9 EC C8 95 DF 54 55 BD 46 FF E8 14 C7 07 3E 23 08 72 F8 D0 A1 FE FE 
7E A1 FA A4 AD F1 2D 9D 90 7E 22 E5 F1 78 31 31 87 7B E9 F4 69 D3 A7 E3 E9 CD 3F 0F 6E 90 2B 2C 
2C 74 76 76 16 FC 13 2B 2B 2B B2 A3 92 26 48 B7 90 C1 60 14 3E 2F 7C 98 F2 E8 6D 15 06 37 64 F6 
EE DD 4B 72 50 52 85 98 9A 33 B2 06 27 79 FC 73 F3 20 32 DE 13 99 85 12 8F 38 2C 94 9D 43 49 45 
76 14 4A 3C FF 06 0B A5 FC 36 53 FA 2D C4 30 6C 60 60 60 B8 A3 20 91 7F CA 50 60 F2 70 71 99 16 
1E 16 36 6A F4 68 7B 7B 7B 17 17 97 31 63 C6 48 59 56 56 FA 8F C2 B0 F0 F0 3B 77 EF AE 5F BF BE 
EA 75 85 AB A3 E3 74 57 97 F6 F6 F6 E1 0E 0A 26 D2 7C 14 B2 D9 EC A2 A2 A2 A7 19 19 39 CF B2 FB 
E8 7D 16 16 96 67 2F 5E 74 74 72 D2 D6 D6 1E EE D0 60 22 6D 16 62 18 F6 EC D9 B3 27 BF FD F6 FC 
79 01 9B C3 B6 B4 FC C4 C9 D1 29 28 38 58 4B 4B 8B 78 DC 44 CA 90 B6 4F C5 E3 F1 E2 E3 E3 7F 7D 
FC 68 F2 64 9B 85 BE 7E F6 0E 0E 86 86 86 B0 C6 01 FF 33 91 36 0B 15 15 15 8F 1C 39 32 30 30 F0 
FA F5 EB A7 4F 9F 46 EF D9 D3 D1 D1 F9 F1 C7 26 F6 0E 0E 53 A7 4E 1D 35 6A 94 D0 3A 31 ED ED ED 
7C 3E 1F 00 A0 AC AC 2C A1 2B E2 49 9B 85 38 6A 6A 6A D6 D6 D6 D6 D6 D6 00 00 36 9B 5D 51 51 91 
93 93 FD DD 96 2D D5 D5 D5 93 AC AD F7 EE DD 8B 0F D5 65 30 18 FF F9 CF 7F AC AC AC 10 04 A9 A8 
A8 38 70 E0 80 83 83 C3 70 C7 FE 97 91 4E 0B 09 50 14 AD AC AC CC CF CB CB CE CE EE ED ED 31 35 
33 9D E2 E0 20 F8 C4 AC B1 B1 F1 D9 B3 67 01 00 69 69 69 89 89 89 32 0B FF 11 70 38 9C F2 F2 F2 
EC AC AC AC AC AC F6 8E 0E E3 31 63 A6 3A 3A EE D8 B1 93 46 A3 0D 6E D1 D4 D4 D4 84 86 86 22 08 
52 59 59 B9 6F DF BE 61 09 F8 03 91 36 0B 39 1C 8E 9F 9F 5F 5A EA AF 5F 7C B1 60 59 68 A8 B5 B5 
B5 E8 A7 B4 0D 0C 0C B6 6D DB F6 D3 4F 3F A9 A9 A9 D9 D8 D8 F0 F9 FC 94 94 94 79 F3 E6 89 2D E0 
0F 47 DA 2C A4 50 28 A7 4E 9D 2A 2D 2D 4D 7B F2 E4 D4 C9 93 0C 06 D3 C2 62 82 DD A7 9F DA DA DA 
EA E8 E8 0C 3E 0A 15 15 15 0D 0D 0D 23 23 23 FD FD FD 93 92 92 0C 0C 0C EE DD BB 27 B3 70 98 D1 
D1 D1 71 71 71 71 71 71 01 00 D0 E9 F4 97 2F 5F 66 3E 7D 7A F5 72 3C 63 60 60 82 A5 E5 34 D7 E9 
33 67 CE C4 6F 33 14 14 14 66 CF 9E 0D 00 90 93 93 DB BF 7F FF CF 3F FF 3C 77 EE 5C C1 E7 0B 24 
02 29 B4 50 10 4D 4D 4D 47 47 C7 B1 63 C7 1A 1B 1B A7 24 27 DF B9 7D A7 B9 A9 79 CA 94 29 F8 FD 
03 85 42 09 0D 0D C5 6B 8E 19 33 E6 DB 6F BF 1D CE 58 FF 2E 52 6B 61 75 75 75 5E 5E 5E 7A 5A 7A 
4D 4D 8D A6 A6 86 A3 A3 D3 EA 35 6B 8E 1E 3F FE CE DB FC 5D BB 76 89 27 42 58 48 9B 85 3C 1E 6F 
E7 CE 9D 49 F7 13 8D 8C C6 CC 76 77 0F 5D 1E 6A 6C 6C FC 97 D6 D2 16 CF 54 BE 10 91 36 0B E5 E5 
E5 67 CC 98 81 00 AC B4 B4 34 33 33 B3 AF AF 7F D6 EC 59 F8 92 BF D2 8A B4 59 88 20 88 9B 9B 1B 
3E 23 6D 53 53 53 71 71 F1 96 CD 5B 6E DE BA 29 AD 8B DA 03 E9 EE 2F D4 D7 D7 9F 3B 77 AE B6 36 
15 CF 82 4A 2B D2 6C E1 BF 84 7F 83 85 52 3E 08 F2 DF 60 A1 94 23 B3 50 E2 91 59 28 F1 C8 2C 94 
78 64 16 4A 3C 32 0B 25 1E 99 85 12 8F CC 42 89 47 66 A1 C4 23 0E 0B 87 FB E1 B0 E1 D4 17 83 B6 
EC 28 94 78 E4 77 EC D8 41 DE BB 57 55 55 C5 5F BA F4 E4 C9 6F 18 8A D1 F4 F4 C4 3C 7B 75 63 63 
E3 F5 6B D7 52 92 53 06 06 06 74 69 34 31 3F 0D D3 D5 D5 F5 F3 AD 5B F7 13 EF 77 76 76 6A 51 A9 
34 1A 8D A4 69 3F C8 3A 0A 31 0C 3B 7E EC F8 86 0D EB CD C6 8F 3F 7D E6 AC 96 96 D6 F2 D0 65 77 
EF DE 25 49 6E 30 89 89 89 21 4B 42 D4 D4 D4 4E 9E 3E 6D 61 69 B9 65 63 54 EC E1 18 B8 EB D0 88 
E0 D9 B3 67 8B 02 02 7A 7B E9 3F 1E 3A 34 7D C6 8C 23 71 71 9B 37 6D E2 70 38 A4 88 91 34 49 66 
4A 4A CA E2 AF 16 0B 2E 38 D9 D7 D7 E7 E9 E1 59 54 54 44 92 A2 20 A5 A5 A5 F3 E6 CE ED ED ED 25 
4A 50 14 0D 5D 16 9A 98 98 28 06 F5 EE EE 6E B7 19 6E F5 F5 F5 82 85 D1 7B F6 1C 3A F4 23 19 72 
A4 58 88 A2 A8 AF CF 97 8D 8D 8D 42 E5 79 79 79 2B 22 22 C8 50 14 22 32 72 75 4E 4E 8E 50 61 5B 
5B 9B AF AF EF E0 B5 F6 A0 73 F4 C8 91 CB F1 F1 42 85 0C 06 C3 DB 7B 7E 7F 7F 3F 74 39 52 4E A4 
FD FD FD 18 02 F4 F5 F5 85 CA 6D 6C 6C EA EA EA C9 50 14 A2 AA AA 6A F0 82 9E A3 46 8D 52 94 97 
A7 D3 E9 64 AB BF 28 2E 76 99 36 4D A8 50 45 45 E5 23 C3 8F 9A 9B 9B A1 CB 91 62 A1 A2 A2 22 97 
CB C5 06 CD 68 38 30 30 A0 A8 28 8E D1 3A 14 45 CA E0 29 12 30 0C 63 B1 58 62 18 A0 A6 AA A6 D6 
D7 D7 37 B8 9C C5 64 8A 58 C3 EE 6F 43 8A 85 CA CA CA C6 C6 C6 E9 E9 E9 42 E5 77 EF DE 9D 32 65 
0A 19 8A 42 38 3B BB 0C 9E E9 F4 D9 B3 67 A3 75 75 C5 30 0E 6A B6 BB FB 95 CB 97 85 0A 6B 6A 6A 
7A 7B 7B 45 2C 95 F6 F7 81 7E 6A C6 A9 AD AD 9D 3E 7D 5A 79 79 39 51 92 95 95 35 73 E6 4C F1 CC 
74 DE D7 D7 37 D3 6D 66 5A 5A 1A 51 52 59 59 E9 36 C3 8D 58 78 95 54 50 14 5D E8 BB 30 FE D2 25 
E2 BA DB D2 D2 E2 E9 E9 F9 DB 6F BF 91 21 27 6A F1 BB 0F A4 B2 B2 72 C3 86 F5 2A 2A 2A FA FA FA 
35 35 35 CA 4A CA 07 7F F8 41 57 57 97 24 39 21 DA DB DB 37 46 45 F5 D2 7B 8C 8D C7 B6 B6 B4 0C 
0C F4 EF 89 FE DE C2 C2 42 3C EA 0C 06 63 C7 F6 ED 65 E5 E5 A6 A6 A6 F4 DE DE A6 A6 E6 A8 8D 51 
D3 06 5D 20 A1 40 A2 85 00 00 1E 8F D7 DE DE DE DD DD AD A3 A3 A3 A3 A3 33 E4 BA A7 E4 81 A2 68 
67 67 67 5B 5B 1B 95 4A 1D 3D 7A B4 98 A7 4B C0 30 AC B7 B7 B7 A5 A5 45 55 55 95 46 A3 91 71 15 
C4 21 D7 42 19 62 40 96 23 95 78 64 16 4A 3C 32 0B 25 1E C8 16 B6 B5 B5 BD 79 F3 46 A8 B0 A4 A4 
84 B8 D1 C6 30 AC B8 B8 98 CB E5 C2 D5 25 A8 AC AC EC E8 E8 C0 5F F3 F9 FC 8A 8A 8A AC AC AC F2 
F2 72 22 C1 CD 64 32 5F BE 7C 49 92 3A 9D 4E 7F F5 EA 15 FE 9A C7 E3 95 95 95 65 67 67 37 36 36 
12 15 D8 6C 76 71 71 31 64 55 88 37 28 5C 2E 77 EE DC B9 42 A9 E4 CC CC 4C 2A 95 9A 9B 9B 4B 94 
AC 58 B1 E2 D0 A1 43 10 75 09 EA EA EA EC ED ED 6B 6A 6A 30 0C 6B 6A 6A 9A 33 67 0E BE 66 A6 BA 
BA BA A7 A7 27 BE 2A 5F 7F 7F BF AB AB 6B 66 66 26 74 75 3E 9F 1F 11 11 71 F8 F0 61 0C C3 BA BA 
BA BC BD BD 55 55 55 E5 E4 E4 46 8E 1C F9 DD 77 DF E1 E9 2A 26 93 E9 E6 E6 06 F7 06 11 A6 85 17 
2F 5E 9C 3D 7B 36 1E 2B 86 61 28 8A 3E 7A F4 C8 C0 C0 00 41 10 41 0B DF BC 79 63 66 66 56 59 59 
09 51 1A 27 24 24 64 C7 8E 1D B8 B4 9F 9F DF E8 D1 A3 4F 9C 38 91 97 97 77 F4 E8 51 0D 0D 8D 65 
CB 96 E1 D5 6E DF BE 6D 67 67 47 C4 09 8B D4 D4 54 6B 6B 6B 3A 9D 8E 61 D8 AA 55 AB 46 8C 18 71 
EC D8 B1 DC DC DC 6D DB B6 29 28 28 DC BD 7B 17 AF 96 9C 9C 6C 6D 6D CD 60 30 60 E9 42 B3 90 C5 
62 99 99 99 DD BF 7F 1F DF E4 F1 78 DF 7E FB AD 9A 9A 5A 40 40 80 B2 B2 B2 A0 85 18 86 2D 5F BE 
3C 3C 3C 1C 96 34 4E 49 49 89 9E 9E 1E DE C5 C3 64 32 35 34 34 F0 03 02 67 CB 96 2D 1F 7F FC F1 
C0 C0 00 86 61 1C 0E C7 CA CA EA C6 8D 1B 70 03 98 39 73 26 A1 E8 EF EF BF 71 E3 46 62 97 89 89 
C9 A6 4D 9B F0 D7 28 8A DA DA DA 9E 3F 7F 1E 96 2E 34 0B EF DC B9 43 A3 D1 88 9F 36 87 C3 59 B7 
6E 5D 7E 7E 7E 69 69 A9 AA AA AA 90 85 A9 A9 A9 9A 9A 9A 70 93 6D 91 91 91 3E 3E 3E C4 66 75 75 
75 73 73 33 B1 B9 63 C7 8E 89 13 27 B2 58 2C 7C 73 FB F6 ED 6E 6E 6E 82 DD 99 1F 48 41 41 C1 A8 
51 A3 6A 6B 6B 85 CA D9 6C F6 F5 EB D7 55 55 55 05 4F 9E FB F6 ED 73 74 74 E4 70 38 50 A4 A1 59 
B8 64 C9 92 05 0B 16 0C 2E 1F D2 C2 AE AE 2E 1D 1D 9D 84 84 04 58 EA 7C 3E DF C4 C4 24 36 36 76 
C8 BD 0D 0D 0D 1F 7D F4 D1 9E 3D 7B 88 92 D4 D4 54 75 75 75 62 39 DB 0F 27 3A 3A DA C6 C6 46 E8 
E4 FC E8 D1 23 0D 0D 0D 79 79 F9 35 6B D6 08 FE 5C 32 33 33 35 34 34 EA EA EA A0 48 C3 69 91 F2 
78 BC 92 92 92 F7 CF 40 AA AA AA 1A 18 18 14 15 15 41 51 07 00 D0 E9 F4 9A 9A 9A 21 03 A8 AF AF 
F7 F1 F1 31 33 33 5B BB 76 2D 51 68 6A 6A CA 64 32 CB CB CB 61 05 50 54 54 64 66 66 26 94 C3 33 
32 32 BA 7C F9 F2 D6 AD 5B 2F 5C B8 10 1D 1D 8D FD 91 08 1B 3B 76 2C 9F CF 2F 2B 2B 83 22 0D 27 
6D C8 66 B3 7B 7A 7A DE 7F ED 78 0A 85 A2 A5 A5 D5 DA DA 0A 45 1D 00 D0 D6 D6 C6 E7 F3 07 07 F0 
E2 C5 8B C0 C0 40 3D 3D BD AB 57 AF 0A 4E 63 39 7A F4 68 04 41 DA DA DA 60 05 D0 DA DA 6A 6E 6E 
2E 54 68 66 66 66 66 66 E6 E5 E5 A5 A5 A5 F5 FD F7 DF 47 44 44 E0 0B 1D 6B 6B 6B CB CB CB C3 52 
87 73 14 22 08 22 27 27 87 BD 77 BA 15 C3 30 14 45 21 F6 BE E2 6F 25 14 C0 ED DB B7 DD DD DD 6D 
6D 6D 6F DD BA 25 34 A7 13 FE F4 3D DC 00 08 75 0E 87 B3 69 D3 A6 94 94 14 62 AF B9 B9 79 4F 4F 
0F B1 02 35 7E 93 0A 4B 1D 8E 85 2A 2A 2A BA BA BA 82 F7 B0 A2 61 B3 D9 1D 1D 1D 10 FB 3F 0D 0D 
0D 29 14 4A 53 53 13 51 72 FF FE FD C0 C0 C0 C8 C8 C8 D3 A7 4F 0F EE E6 6D 6A 6A C2 30 0C 62 00 
C6 C6 C6 84 3A 85 42 B9 79 F3 E6 81 03 07 88 21 6B 37 6E DC 30 32 32 A2 52 A9 F8 66 6B 6B 2B 97 
CB 1D 3C 30 E5 EF 01 E7 44 8A 20 C8 94 29 53 72 72 72 DE B3 7E 6F 6F 6F 43 43 03 C4 1E 7C 0A 85 
62 6B 6B 5B 58 58 E8 ED ED 0D 00 18 18 18 08 0D 0D D5 D2 D2 AA A8 A8 58 BE 7C 39 82 20 18 86 51 
A9 D4 DD BB 77 E3 A7 D3 92 92 92 91 23 47 9A 99 99 C1 0A C0 D1 D1 71 FF FE FD 0C 06 03 5F 41 61 
F7 EE DD 21 21 21 2E 2E 2E 56 56 56 2F 5F BE 2C 2E 2E 3E 7F FE 3C 3E 8F 2D 00 A0 AC AC 4C 5D 5D 
7D F0 89 F7 EF 01 2D C1 E6 ED ED 9D 97 97 37 78 0D 77 65 65 E5 49 93 26 09 2D 0D 91 96 96 46 A5 
52 21 CE DF 8A 20 88 97 97 57 6A 6A 2A 8F C7 03 00 D4 D4 D4 8C 1E 3D 5A 57 57 B7 A0 A0 20 FF 0F 
8A 8B 8B 89 D9 4B 92 92 92 66 CF 9E 4D 7C A7 1F 8E 9B 9B 5B 57 57 17 D1 3E F2 F3 F3 BB 75 EB 16 
8D 46 CB CF CF 37 34 34 4C 4A 4A F2 F5 F5 25 2A A7 A4 A4 B8 B8 B8 E0 D7 45 08 40 69 D7 62 18 C6 
E5 72 9D 9C 9C CE 9C 39 F3 CE 9A 28 8A 7A 79 79 09 36 F1 A1 D0 D8 D8 A8 A7 A7 F7 E2 C5 8B 77 D6 
A4 D3 E9 06 06 06 E9 E9 E9 70 03 58 B4 68 51 54 54 D4 3B AB B1 58 2C 23 23 A3 E4 E4 64 58 BA 30 
13 6C 49 49 49 B6 B6 B6 EF 4C 1D E5 E7 5E 54 84 35 00 00 00 C8 49 44 41 54 E7 5B 58 58 74 74 74 
40 94 C6 D9 BC 79 73 58 58 D8 3B AB 1D 3F 7E 7C FE FC F9 D0 D5 8B 8A 8A CC CD CD 05 F3 09 43 72 
E1 C2 85 39 73 E6 40 CC 2A 40 1E FE F4 D5 57 5F 9D 3E 7D 5A 44 05 3E 9F EF E3 E3 F3 F3 CF 3F C3 
D5 C5 E9 E9 E9 71 74 74 7C FE FC B9 88 3A ED ED ED F6 F6 F6 24 8D 83 DA B3 67 CF 86 0D 1B 44 54 
E8 E9 E9 B1 B3 B3 AB A8 A8 80 28 0A 79 E0 05 FE A6 A2 C7 C8 F0 F9 7C F2 06 73 A2 28 8A 20 88 E8 
07 50 C8 0B 00 7B 8F 9B 25 E8 EA B2 B1 33 12 8F AC D7 5E E2 91 59 28 F1 C8 2C 94 78 64 16 4A 3C 
32 0B 25 1E 99 85 12 8F CC 42 89 47 66 A1 C4 23 B3 50 E2 91 59 28 F1 C8 2C 94 78 FE 1F D8 05 08 
FD B4 13 B2 C3 00 00 00 00 49 45 4E 44 AE 42 60 82 
EndData
$EndBitmap
Wire Wire Line
	7050 1900 7050 1800
Wire Wire Line
	7050 2100 7050 2200
Text Notes 9600 5050 3    50   ~ 0
POWER ON LED
Text Notes 8150 7650 0    50   ~ 0
01/07/2019
Wire Wire Line
	6350 5100 6350 5350
$Comp
L Device:D_Schottky_Small D2
U 1 1 5D4344DE
P 6550 5350
F 0 "D2" H 6550 5450 50  0000 C CNN
F 1 "MBR120" H 6550 5250 50  0000 C CNN
F 2 "Diodes_SMD:D_SOD-123F" V 6550 5350 50  0001 C CNN
F 3 "~" V 6550 5350 50  0001 C CNN
	1    6550 5350
	-1   0    0    1   
$EndComp
Wire Wire Line
	6650 5350 6750 5350
Wire Wire Line
	6450 5350 6350 5350
Connection ~ 6350 5350
Wire Wire Line
	6350 5350 6350 5400
$EndSCHEMATC
