PCBNEW-LibModule-V1 Fri Jul 12 13:09:20 2019
# encoding utf-8
Units mm
$INDEX
IDC_2x08_Pitch2.54mm
USB_Micro-B_Aliexpress
$EndINDEX
$MODULE IDC_2x08_Pitch2.54mm
Po 0.0000 0.0000 0 -1 0 0 ~~
Li IDC_2x08_Pitch2.54mm
At STD
Cd Through hole straight pin header, 2x08, 2.54mm pitch, double rows
Kw Through hole pin header THT 2x08 2.54mm double row
T0 1.2700 -2.3300 1.0000 1.0000 0 0.1500 N V 21 N "REF**"
T1 1.2065 22.0980 1.0000 1.0000 0 0.1500 N V 32 N "IDC_2x08_Pitch2.54mm"
T2 1.2700 8.8900 1.0000 1.0000 900 0.1500 N V 32 N "%R"
DS -3.3400 -5.1000 5.8000 -5.1000 0.1200 21
DS 5.8000 -5.1000 5.8000 22.9000 0.1200 21
DS -3.3400 -5.1000 -3.3400 22.9000 0.1200 21
DS -3.3400 22.9000 5.8000 22.9000 0.1200 21
DS -3.3000 22.9000 -3.3000 -5.1000 0.1000 32
DS 5.8000 22.9000 -3.3100 22.9000 0.1000 32
DS 5.8000 -5.1000 5.8000 22.9000 0.1000 32
DS -3.3000 -5.1000 5.8000 -5.1000 0.1000 32
DS -2.0320 6.6800 -3.3000 6.6800 0.1500 21
DS -3.3000 11.1000 -2.0320 11.1000 0.1500 21
DS -2.0320 11.1000 -2.0320 6.6800 0.1500 21
$PAD
Po 2.5400 17.7800
Sh "16" O 1.7000 1.7000 0.0000 0.0000 0
At STD N C0FFFF
Dr 1.0000 0.0000 0.0000
$EndPAD
$PAD
Po 0.0000 17.7800
Sh "15" O 1.7000 1.7000 0.0000 0.0000 0
At STD N C0FFFF
Dr 1.0000 0.0000 0.0000
$EndPAD
$PAD
Po 2.5400 15.2400
Sh "14" O 1.7000 1.7000 0.0000 0.0000 0
At STD N C0FFFF
Dr 1.0000 0.0000 0.0000
$EndPAD
$PAD
Po 0.0000 15.2400
Sh "13" O 1.7000 1.7000 0.0000 0.0000 0
At STD N C0FFFF
Dr 1.0000 0.0000 0.0000
$EndPAD
$PAD
Po 2.5400 12.7000
Sh "12" O 1.7000 1.7000 0.0000 0.0000 0
At STD N C0FFFF
Dr 1.0000 0.0000 0.0000
$EndPAD
$PAD
Po 0.0000 12.7000
Sh "11" O 1.7000 1.7000 0.0000 0.0000 0
At STD N C0FFFF
Dr 1.0000 0.0000 0.0000
$EndPAD
$PAD
Po 2.5400 10.1600
Sh "10" O 1.7000 1.7000 0.0000 0.0000 0
At STD N C0FFFF
Dr 1.0000 0.0000 0.0000
$EndPAD
$PAD
Po 0.0000 10.1600
Sh "9" O 1.7000 1.7000 0.0000 0.0000 0
At STD N C0FFFF
Dr 1.0000 0.0000 0.0000
$EndPAD
$PAD
Po 2.5400 7.6200
Sh "8" O 1.7000 1.7000 0.0000 0.0000 0
At STD N C0FFFF
Dr 1.0000 0.0000 0.0000
$EndPAD
$PAD
Po 0.0000 7.6200
Sh "7" O 1.7000 1.7000 0.0000 0.0000 0
At STD N C0FFFF
Dr 1.0000 0.0000 0.0000
$EndPAD
$PAD
Po 2.5400 5.0800
Sh "6" O 1.7000 1.7000 0.0000 0.0000 0
At STD N C0FFFF
Dr 1.0000 0.0000 0.0000
$EndPAD
$PAD
Po 0.0000 5.0800
Sh "5" O 1.7000 1.7000 0.0000 0.0000 0
At STD N C0FFFF
Dr 1.0000 0.0000 0.0000
$EndPAD
$PAD
Po 2.5400 2.5400
Sh "4" O 1.7000 1.7000 0.0000 0.0000 0
At STD N C0FFFF
Dr 1.0000 0.0000 0.0000
$EndPAD
$PAD
Po 0.0000 2.5400
Sh "3" O 1.7000 1.7000 0.0000 0.0000 0
At STD N C0FFFF
Dr 1.0000 0.0000 0.0000
$EndPAD
$PAD
Po 2.5400 0.0000
Sh "2" O 1.7000 1.7000 0.0000 0.0000 0
At STD N C0FFFF
Dr 1.0000 0.0000 0.0000
$EndPAD
$PAD
Po 0.0000 0.0000
Sh "1" R 1.7000 1.7000 0.0000 0.0000 0
At STD N C0FFFF
Dr 1.0000 0.0000 0.0000
$EndPAD
$SHAPE3D
Na ${KISYS3DMOD}/Pin_Headers.3dshapes/Pin_Header_Straight_2x08_Pitch2.54mm.wrl
Of 0.0000 0.0000 0.0000
Sc 1.0000 1.0000 1.0000
Ro 0.0000 0.0000 0.0000
$EndSHAPE3D
$EndMODULE IDC_2x08_Pitch2.54mm
$MODULE USB_Micro-B_Aliexpress
Po 0.0000 0.0000 0 -1 0 0 ~~
Li USB_Micro-B_Aliexpress
At STD
Cd USB Micro-B receptacle, http://www.mouser.com/ds/2/445/629105150521-469306.pdf
Kw usb micro receptacle
T0 0.0000 -0.9000 1.0000 1.0000 0 0.1500 N V 21 N "REF**"
T1 0.1400 7.1400 1.0000 1.0000 0 0.1500 N V 32 N "USB_Micro-B_Aliexpress"
DS -4.0000 0.3500 -4.0000 4.8000 0.1500 32
DS -4.0000 4.8100 -3.7000 4.8100 0.1500 32
DS -3.7000 4.8100 -3.7000 6.0100 0.1500 32
DS -3.7000 6.0100 3.7000 6.0100 0.1500 32
DS 3.7000 6.0100 3.7000 4.8100 0.1500 32
DS 3.7000 4.8100 4.0000 4.8100 0.1500 32
DS 4.0000 4.8000 4.0000 0.3500 0.1500 32
DS 4.0000 0.3500 -4.0000 0.3500 0.1500 32
DS -2.7000 4.8000 2.7000 4.8000 0.1500 32
DS -1.0750 -0.1250 -1.3000 0.0500 0.1500 32
DS -1.3000 0.0500 -1.5250 -0.1250 0.1500 32
DS -1.5250 -0.1250 -1.5250 -0.3500 0.1500 32
DS -1.5250 -0.3500 -1.0750 -0.3500 0.1500 32
DS -1.0750 -0.3500 -1.0750 -0.1250 0.1500 32
DS -4.1500 1.9500 -4.1500 3.3500 0.1500 21
DS -4.1500 4.8100 -4.1500 4.9600 0.1500 21
DS -4.1500 4.9600 -3.8500 4.9600 0.1500 21
DS -3.8500 4.9600 -3.8500 5.4100 0.1500 21
DS 3.8500 5.4100 3.8500 4.9600 0.1500 21
DS 3.8500 4.9600 4.1500 4.9600 0.1500 21
DS 4.1500 4.9600 4.1500 4.8100 0.1500 21
DS 4.1500 3.3500 4.1500 1.9500 0.1500 21
DS -1.0750 -0.2250 -1.8000 -0.2250 0.1500 21
DS -1.8000 -0.2250 -1.8000 0.2000 0.1500 21
DS -1.8000 0.2000 -2.8000 0.2000 0.1500 21
DS 1.8000 0.2000 2.8000 0.2000 0.1500 21
DS -4.9400 -0.7400 -4.9400 6.2100 0.0500 30
DS -4.9400 6.2100 4.9500 6.2100 0.0500 30
DS 4.9500 6.2200 4.9500 -0.7400 0.0500 30
DS 4.9500 -0.7400 -4.9400 -0.7400 0.0500 30
T2 0.0000 3.6500 1.0000 1.0000 0 0.1500 N V 32 N "%R"
T2 0.0000 5.4100 0.5000 0.5000 0 0.0800 N V 24 N "PCB Edge"
$PAD
Po 3.5750 3.6500
Sh "6" O 0.9000 1.4000 0.0000 0.0000 0
At STD N C0FFFF
Dr 0.5500 0.0000 0.0000 O 0.5500 1.1000
$EndPAD
$PAD
Po -3.5750 3.6500
Sh "6" O 0.9000 1.4000 0.0000 0.0000 0
At STD N C0FFFF
Dr 0.5500 0.0000 0.0000 O 0.5500 1.1000
$EndPAD
$PAD
Po 3.5750 0.2000
Sh "6" O 0.9000 1.4000 0.0000 0.0000 0
At STD N C0FFFF
Dr 0.5500 0.0000 0.0000 O 0.5500 1.1000
$EndPAD
$PAD
Po -1.3000 0.7000
Sh "1" R 0.4500 1.4000 0.0000 0.0000 0
At SMD N 888000
$EndPAD
$PAD
Po -0.6500 0.7000
Sh "2" R 0.4500 1.4000 0.0000 0.0000 0
At SMD N 888000
$EndPAD
$PAD
Po 0.0000 0.7000
Sh "3" R 0.4500 1.4000 0.0000 0.0000 0
At SMD N 888000
$EndPAD
$PAD
Po 0.6500 0.7000
Sh "4" R 0.4500 1.4000 0.0000 0.0000 0
At SMD N 888000
$EndPAD
$PAD
Po 1.3000 0.7000
Sh "5" R 0.4500 1.4000 0.0000 0.0000 0
At SMD N 888000
$EndPAD
$PAD
Po -3.5750 0.2000
Sh "6" O 0.9000 1.4000 0.0000 0.0000 0
At STD N C0FFFF
Dr 0.5500 0.0000 0.0000 O 0.5500 1.1000
$EndPAD
$PAD
Po -2.0000 1.5250
Sh "" C 0.7000 0.7000 0.0000 0.0000 0
At HOLE N C0FFFF
Dr 0.7000 0.0000 0.0000
$EndPAD
$PAD
Po 2.0000 1.5250
Sh "" C 0.7000 0.7000 0.0000 0.0000 0
At HOLE N C0FFFF
Dr 0.7000 0.0000 0.0000
$EndPAD
$SHAPE3D
Na ${KISYS3DMOD}/Connectors_USB.3dshapes/USB_Micro-B_Wuerth-629105150521.wrl
Of 0.0000 0.0000 0.0000
Sc 1.0000 1.0000 1.0000
Ro 0.0000 0.0000 0.0000
$EndSHAPE3D
$EndMODULE USB_Micro-B_Aliexpress
$EndLIBRARY
